{
  "project_info": {
    "project_number": "341983863005",
    "project_id": "gameshop-1614a",
    "storage_bucket": "gameshop-1614a.appspot.com"
  },
  "client": [
    {
      "client_info": {
        "mobilesdk_app_id": "1:341983863005:android:5bde46a2c1123f9bd17b34",
        "android_client_info": {
          "package_name": "com.example.game_shop_feldkircher"
        }
      },
      "oauth_client": [
        {
          "client_id": "341983863005-5p8kah6itucusu9vao617ev917un28t0.apps.googleusercontent.com",
          "client_type": 3
        }
      ],
      "api_key": [
        {
          "current_key": "AIzaSyAxTEk3xh2YMQCw8AdAeBUSeHfPQwsSgRA"
        }
      ],
      "services": {
        "appinvite_service": {
          "other_platform_oauth_client": [
            {
              "client_id": "341983863005-5p8kah6itucusu9vao617ev917un28t0.apps.googleusercontent.com",
              "client_type": 3
            }
          ]
        }
      }
    }
  ],
  "configuration_version": "1"
}